^D:\PROGRAMS\C++\HOMEWORK_13\HOMEWORK_13\HELPERS.CPP|D:\PROGRAMS\C++\HOMEWORK_13\HOMEWORK_13\MAIN.CPP
D:\PROGRAMS\C++\HOMEWORK_13\HOMEWORK_13\DEBUG\VC142.PDB
D:\PROGRAMS\C++\HOMEWORK_13\HOMEWORK_13\DEBUG\VC142.IDB
D:\PROGRAMS\C++\HOMEWORK_13\HOMEWORK_13\DEBUG\MAIN.OBJ
D:\PROGRAMS\C++\HOMEWORK_13\HOMEWORK_13\DEBUG\HELPERS.OBJ
^D:\PROGRAMS\C++\HOMEWORK_13\HOMEWORK_13\HELPERS.CPP
D:\PROGRAMS\C++\HOMEWORK_13\HOMEWORK_13\DEBUG\VC142.PDB
^D:\PROGRAMS\C++\HOMEWORK_13\HOMEWORK_13\MAIN.CPP
D:\PROGRAMS\C++\HOMEWORK_13\HOMEWORK_13\DEBUG\VC142.PDB
D:\PROGRAMS\C++\HOMEWORK_13\HOMEWORK_13\DEBUG\VC142.IDB
D:\PROGRAMS\C++\HOMEWORK_13\HOMEWORK_13\DEBUG\MAIN.OBJ
